﻿{
  "profiles": {
    "kestrel": {
      "commandName": "kestrel",
      "environmentVariables": {
        "ASPNET_ENV": "Development",
        "LOG_FORMAT": "Plain",
        "CLEAR_CONFIGURATION_HOST": "192.168.1.67",
        "CLEAR_CONFIGURATION_PORT": "7001",
        "CLEAR_EVENTHUB_HOST": "192.168.1.67",
        "CLEAR_EVENTHUB_PORT": "7002",
        "CLEAR_TENANT_HOST": "192.168.1.67",
        "CLEAR_TENANT_PORT": "7003",
        "CLEAR_LOOKUPSERVICE_HOST": "192.168.1.67",
        "CLEAR_LOOKUPSERVICE_PORT": "7005",
        "CLEAR_TLSPROXY_HOST": "192.168.1.67",
        "CLEAR_TLSPROXY_PORT": "5010",
        "CLEAR_NATS_URL": "192.168.1.67:4222"
      }
    }
  }
}