﻿{
  "profiles": {
    "kestrel": {
      "commandName": "kestrel",
      "environmentVariables": {
        "ASPNET_ENV": "Development",
        "LOG_FORMAT": "Plain",
        "IDANALYTICS_CONFIGURATION_HOST": "192.168.1.67",
        "IDANALYTICS_CONFIGURATION_PORT": "7001",
        "IDANALYTICS_EVENTHUB_HOST": "192.168.1.67",
        "IDANALYTICS_EVENTHUB_PORT": "7002",
        "IDANALYTICS_TENANT_HOST": "192.168.1.67",
        "IDANALYTICS_TENANT_PORT": "7003",
        "IDANALYTICS_LOOKUPSERVICE_HOST": "192.168.1.67",
        "IDANALYTICS_LOOKUPSERVICE_PORT": "7005",
        "IDANALYTICS_TLSPROXY_HOST": "192.168.1.67",
        "IDANALYTICS_TLSPROXY_PORT": "5010",
        "IDANALYTICS_NATS_URL": "192.168.1.67:4222"
      }
    }
  }
}